Flipflops/dff_async_reset_tb.vcd
$date
	Thu Sep 19 08:29:13 2024
$end
$version
	Icarus Verilog
$end
$timescale
	1s
$end
$scope module dff_async_reset_tb $end
$var wire 1 ! q $end
$var reg 1 " clk $end
$var reg 1 # d $end
$var reg 1 $ reset $end
$scope module dut $end
$var wire 1 " clk $end
$var wire 1 # d $end
$var wire 1 $ reset $end
$var reg 1 ! q $end
$upscope $end
$upscope $end
$enddefinitions $end
$comment Show the parameter values. $end
$dumpall
$end
#0
$dumpvars
0$
0#
0"
x!
$end
#5
0!
1"
#10
0"
1#
#15
1!
1"
#20
0"
0#
#25
0!
1"
#30
0"
1#
#35
1!
1"
#37
0!
1$
#40
0"
#43
0$
#45
1!
1"
#50
0"
#53
0#
#55
0!
1"
#60
0"
#63
1#
#65
1!
1"
