Flipflops/dff_sync_reset_tb.vcd
$date
	Thu Sep 19 08:27:37 2024
$end
$version
	Icarus Verilog
$end
$timescale
	1s
$end
$scope module dff_sync_reset_tb $end
$var wire 1 ! q $end
$var reg 1 " clk $end
$var reg 1 # d $end
$var reg 1 $ reset $end
$scope module dut $end
$var wire 1 " clk $end
$var wire 1 # d $end
$var wire 1 $ reset $end
$var reg 1 ! q $end
$upscope $end
$upscope $end
$enddefinitions $end
$comment Show the parameter values. $end
$dumpall
$end
#0
$dumpvars
0$
0#
0"
x!
$end
#5
0!
1"
#10
0"
1#
#15
1!
1"
#20
0"
0#
#25
0!
1"
#30
0"
1#
#35
1!
1"
#40
0"
1$
#45
0!
1"
#50
0"
0$
#55
1!
1"
#60
0"
0#
#65
0!
1"
#70
0"
1#
#75
1!
1"
